simulation/qsim/TLC_Project.msim.vcd
$comment
	File created using the following command:
		vcd file TLC_Project.msim.vcd -direction
$end
$date
	Wed Jan 08 19:54:56 2025
$end
$version
	ModelSim Version 10.1d
$end
$timescale
	1ps
$end
$scope module TLC_Project_vlg_vec_tst $end
$var reg 1 ! CLOCK_50 $end
$var reg 1 " EastSensor $end
$var reg 1 # NorthSensor $end
$var reg 1 $ reset_PB0 $end
$var wire 1 % EN1 $end
$var wire 1 & EN2 $end
$var wire 1 ' EN3 $end
$var wire 1 ( EN4 $end
$var wire 1 ) EastGreen $end
$var wire 1 * EastRed $end
$var wire 1 + EastYellow $end
$var wire 1 , HEX [6] $end
$var wire 1 - HEX [5] $end
$var wire 1 . HEX [4] $end
$var wire 1 / HEX [3] $end
$var wire 1 0 HEX [2] $end
$var wire 1 1 HEX [1] $end
$var wire 1 2 HEX [0] $end
$var wire 1 3 NorthGreen $end
$var wire 1 4 NorthRed $end
$var wire 1 5 NorthYellow $end
$var wire 1 6 sampler $end
$scope module i1 $end
$var wire 1 7 gnd $end
$var wire 1 8 vcc $end
$var wire 1 9 unknown $end
$var tri1 1 : devclrn $end
$var tri1 1 ; devpor $end
$var tri1 1 < devoe $end
$var wire 1 = NorthRed~output_o $end
$var wire 1 > NorthYellow~output_o $end
$var wire 1 ? NorthGreen~output_o $end
$var wire 1 @ EastRed~output_o $end
$var wire 1 A EastYellow~output_o $end
$var wire 1 B EastGreen~output_o $end
$var wire 1 C HEX[0]~output_o $end
$var wire 1 D HEX[1]~output_o $end
$var wire 1 E HEX[2]~output_o $end
$var wire 1 F HEX[3]~output_o $end
$var wire 1 G HEX[4]~output_o $end
$var wire 1 H HEX[5]~output_o $end
$var wire 1 I HEX[6]~output_o $end
$var wire 1 J EN1~output_o $end
$var wire 1 K EN2~output_o $end
$var wire 1 L EN3~output_o $end
$var wire 1 M EN4~output_o $end
$var wire 1 N CLOCK_50~input_o $end
$var wire 1 O CLOCK_50~inputclkctrl_outclk $end
$var wire 1 P comb_3|Add0~0_combout $end
$var wire 1 Q comb_3|counter~17_combout $end
$var wire 1 R reset_PB0~input_o $end
$var wire 1 S reset_PB0~inputclkctrl_outclk $end
$var wire 1 T comb_3|Add0~1 $end
$var wire 1 U comb_3|Add0~2_combout $end
$var wire 1 V comb_3|counter~16_combout $end
$var wire 1 W comb_3|Equal0~7_combout $end
$var wire 1 X comb_3|Add0~3 $end
$var wire 1 Y comb_3|Add0~4_combout $end
$var wire 1 Z comb_3|counter~15_combout $end
$var wire 1 [ comb_3|Add0~5 $end
$var wire 1 \ comb_3|Add0~6_combout $end
$var wire 1 ] comb_3|counter~14_combout $end
$var wire 1 ^ comb_3|Add0~7 $end
$var wire 1 _ comb_3|Add0~8_combout $end
$var wire 1 ` comb_3|counter~13_combout $end
$var wire 1 a comb_3|Add0~9 $end
$var wire 1 b comb_3|Add0~10_combout $end
$var wire 1 c comb_3|counter~12_combout $end
$var wire 1 d comb_3|Add0~11 $end
$var wire 1 e comb_3|Add0~12_combout $end
$var wire 1 f comb_3|counter~11_combout $end
$var wire 1 g comb_3|Add0~13 $end
$var wire 1 h comb_3|Add0~14_combout $end
$var wire 1 i comb_3|Add0~15 $end
$var wire 1 j comb_3|Add0~16_combout $end
$var wire 1 k comb_3|Add0~17 $end
$var wire 1 l comb_3|Add0~18_combout $end
$var wire 1 m comb_3|Equal0~5_combout $end
$var wire 1 n comb_3|Equal0~6_combout $end
$var wire 1 o comb_3|Add0~19 $end
$var wire 1 p comb_3|Add0~20_combout $end
$var wire 1 q comb_3|Add0~21 $end
$var wire 1 r comb_3|Add0~22_combout $end
$var wire 1 s comb_3|Add0~23 $end
$var wire 1 t comb_3|Add0~24_combout $end
$var wire 1 u comb_3|counter~10_combout $end
$var wire 1 v comb_3|Add0~25 $end
$var wire 1 w comb_3|Add0~26_combout $end
$var wire 1 x comb_3|counter~9_combout $end
$var wire 1 y comb_3|Add0~27 $end
$var wire 1 z comb_3|Add0~28_combout $end
$var wire 1 { comb_3|counter~8_combout $end
$var wire 1 | comb_3|Add0~29 $end
$var wire 1 } comb_3|Add0~30_combout $end
$var wire 1 ~ comb_3|counter~7_combout $end
$var wire 1 !! comb_3|Add0~31 $end
$var wire 1 "! comb_3|Add0~32_combout $end
$var wire 1 #! comb_3|Add0~33 $end
$var wire 1 $! comb_3|Add0~34_combout $end
$var wire 1 %! comb_3|counter~6_combout $end
$var wire 1 &! comb_3|Add0~35 $end
$var wire 1 '! comb_3|Add0~36_combout $end
$var wire 1 (! comb_3|Add0~37 $end
$var wire 1 )! comb_3|Add0~38_combout $end
$var wire 1 *! comb_3|counter~5_combout $end
$var wire 1 +! comb_3|Add0~39 $end
$var wire 1 ,! comb_3|Add0~40_combout $end
$var wire 1 -! comb_3|counter~4_combout $end
$var wire 1 .! comb_3|Add0~41 $end
$var wire 1 /! comb_3|Add0~42_combout $end
$var wire 1 0! comb_3|counter~3_combout $end
$var wire 1 1! comb_3|Add0~43 $end
$var wire 1 2! comb_3|Add0~44_combout $end
$var wire 1 3! comb_3|counter~2_combout $end
$var wire 1 4! comb_3|Add0~45 $end
$var wire 1 5! comb_3|Add0~46_combout $end
$var wire 1 6! comb_3|counter~1_combout $end
$var wire 1 7! comb_3|Add0~47 $end
$var wire 1 8! comb_3|Add0~48_combout $end
$var wire 1 9! comb_3|Add0~49 $end
$var wire 1 :! comb_3|Add0~50_combout $end
$var wire 1 ;! comb_3|counter~0_combout $end
$var wire 1 <! comb_3|Equal0~0_combout $end
$var wire 1 =! comb_3|Equal0~2_combout $end
$var wire 1 >! comb_3|Equal0~1_combout $end
$var wire 1 ?! comb_3|Equal0~3_combout $end
$var wire 1 @! comb_3|Equal0~4_combout $end
$var wire 1 A! comb_3|Equal0~8_combout $end
$var wire 1 B! comb_3|clk_out~0_combout $end
$var wire 1 C! comb_3|clk_out~feeder_combout $end
$var wire 1 D! comb_3|clk_out~q $end
$var wire 1 E! comb_3|clk_out~clkctrl_outclk $end
$var wire 1 F! NorthSensor~input_o $end
$var wire 1 G! EastSensor~input_o $end
$var wire 1 H! controller|turn~0_combout $end
$var wire 1 I! controller|turn~1_combout $end
$var wire 1 J! controller|turn~q $end
$var wire 1 K! controller|Mux2~0_combout $end
$var wire 1 L! controller|counter[0]~5_combout $end
$var wire 1 M! controller|Equal0~0_combout $end
$var wire 1 N! controller|Equal0~1_combout $end
$var wire 1 O! controller|counter[0]~14_combout $end
$var wire 1 P! controller|counter[0]~13_combout $end
$var wire 1 Q! controller|counter[0]~15_combout $end
$var wire 1 R! controller|Mux11~0_combout $end
$var wire 1 S! controller|counter[0]~6 $end
$var wire 1 T! controller|counter[1]~7_combout $end
$var wire 1 U! controller|counter[1]~8 $end
$var wire 1 V! controller|counter[2]~9_combout $end
$var wire 1 W! controller|counter[2]~10 $end
$var wire 1 X! controller|counter[3]~11_combout $end
$var wire 1 Y! controller|counter[3]~12 $end
$var wire 1 Z! controller|counter[4]~16_combout $end
$var wire 1 [! controller|Mux2~1_combout $end
$var wire 1 \! controller|Mux2~2_combout $end
$var wire 1 ]! controller|Equal1~0_combout $end
$var wire 1 ^! controller|Mux1~0_combout $end
$var wire 1 _! controller|Mux1~1_combout $end
$var wire 1 `! controller|Mux3~1_combout $end
$var wire 1 a! controller|Mux3~0_combout $end
$var wire 1 b! controller|Mux3~2_combout $end
$var wire 1 c! controller|Mux11~0clkctrl_outclk $end
$var wire 1 d! controller|NorthRed~combout $end
$var wire 1 e! controller|Mux9~0_combout $end
$var wire 1 f! controller|NorthYellow~combout $end
$var wire 1 g! controller|Mux9~1_combout $end
$var wire 1 h! controller|NorthGreen~combout $end
$var wire 1 i! div|q[0]~15_combout $end
$var wire 1 j! div|q[1]~5_combout $end
$var wire 1 k! div|q[1]~6 $end
$var wire 1 l! div|q[2]~7_combout $end
$var wire 1 m! div|q[2]~8 $end
$var wire 1 n! div|q[3]~9_combout $end
$var wire 1 o! div|q[3]~10 $end
$var wire 1 p! div|q[4]~11_combout $end
$var wire 1 q! div|q[4]~12 $end
$var wire 1 r! div|q[5]~13_combout $end
$var wire 1 s! div|q[5]~clkctrl_outclk $end
$var wire 1 t! east_converter|bcd~1_combout $end
$var wire 1 u! east_converter|bcd~0_combout $end
$var wire 1 v! east_converter|bcd~2_combout $end
$var wire 1 w! east_converter|tens[1]~2_combout $end
$var wire 1 x! east_converter|tens[2]~0_combout $end
$var wire 1 y! count.00~0_combout $end
$var wire 1 z! count.00~q $end
$var wire 1 {! count.01~0_combout $end
$var wire 1 |! count.01~q $end
$var wire 1 }! count.10~feeder_combout $end
$var wire 1 ~! count.10~q $end
$var wire 1 !" count.11~feeder_combout $end
$var wire 1 "" count.11~q $end
$var wire 1 #" Selector6~0_combout $end
$var wire 1 $" east_converter|tens[3]~1_combout $end
$var wire 1 %" Selector2~0_combout $end
$var wire 1 &" HEX[0]~reg0_q $end
$var wire 1 '" Selector5~0_combout $end
$var wire 1 (" HEX[1]~reg0_q $end
$var wire 1 )" Selector4~0_combout $end
$var wire 1 *" HEX[2]~reg0_q $end
$var wire 1 +" Selector3~0_combout $end
$var wire 1 ," HEX[3]~reg0_q $end
$var wire 1 -" HEX[4]~reg0_q $end
$var wire 1 ." Selector1~2_combout $end
$var wire 1 /" HEX[5]~reg0_q $end
$var wire 1 0" Selector0~0_combout $end
$var wire 1 1" HEX[6]~reg0_q $end
$var wire 1 2" EN1~reg0feeder_combout $end
$var wire 1 3" EN1~reg0_q $end
$var wire 1 4" EN2~reg0feeder_combout $end
$var wire 1 5" EN2~reg0_q $end
$var wire 1 6" EN3~reg0feeder_combout $end
$var wire 1 7" EN3~reg0_q $end
$var wire 1 8" EN4~0_combout $end
$var wire 1 9" EN4~reg0_q $end
$var wire 1 :" controller|state [2] $end
$var wire 1 ;" controller|state [1] $end
$var wire 1 <" controller|state [0] $end
$var wire 1 =" div|q [5] $end
$var wire 1 >" div|q [4] $end
$var wire 1 ?" div|q [3] $end
$var wire 1 @" div|q [2] $end
$var wire 1 A" div|q [1] $end
$var wire 1 B" div|q [0] $end
$var wire 1 C" comb_3|counter [25] $end
$var wire 1 D" comb_3|counter [24] $end
$var wire 1 E" comb_3|counter [23] $end
$var wire 1 F" comb_3|counter [22] $end
$var wire 1 G" comb_3|counter [21] $end
$var wire 1 H" comb_3|counter [20] $end
$var wire 1 I" comb_3|counter [19] $end
$var wire 1 J" comb_3|counter [18] $end
$var wire 1 K" comb_3|counter [17] $end
$var wire 1 L" comb_3|counter [16] $end
$var wire 1 M" comb_3|counter [15] $end
$var wire 1 N" comb_3|counter [14] $end
$var wire 1 O" comb_3|counter [13] $end
$var wire 1 P" comb_3|counter [12] $end
$var wire 1 Q" comb_3|counter [11] $end
$var wire 1 R" comb_3|counter [10] $end
$var wire 1 S" comb_3|counter [9] $end
$var wire 1 T" comb_3|counter [8] $end
$var wire 1 U" comb_3|counter [7] $end
$var wire 1 V" comb_3|counter [6] $end
$var wire 1 W" comb_3|counter [5] $end
$var wire 1 X" comb_3|counter [4] $end
$var wire 1 Y" comb_3|counter [3] $end
$var wire 1 Z" comb_3|counter [2] $end
$var wire 1 [" comb_3|counter [1] $end
$var wire 1 \" comb_3|counter [0] $end
$var wire 1 ]" controller|counter [4] $end
$var wire 1 ^" controller|counter [3] $end
$var wire 1 _" controller|counter [2] $end
$var wire 1 `" controller|counter [1] $end
$var wire 1 a" controller|counter [0] $end
$upscope $end
$upscope $end
$enddefinitions $end
#0
$dumpvars
0!
0"
0#
1$
0%
0&
0'
0(
1)
0*
1+
02
01
00
0/
0.
0-
0,
03
14
15
x6
07
18
x9
1:
1;
1<
1=
1>
0?
0@
1A
1B
0C
0D
0E
0F
0G
0H
0I
0J
0K
0L
0M
0N
0O
1P
1Q
1R
1S
0T
0U
0V
0W
1X
0Y
0Z
0[
0\
0]
1^
0_
0`
0a
0b
0c
1d
0e
0f
0g
0h
1i
0j
0k
0l
0m
0n
1o
0p
0q
0r
1s
0t
0u
0v
0w
0x
1y
0z
0{
0|
0}
0~
1!!
0"!
0#!
0$!
0%!
1&!
0'!
0(!
0)!
0*!
1+!
0,!
0-!
0.!
0/!
00!
11!
02!
03!
04!
05!
06!
17!
08!
09!
0:!
0;!
0<!
0=!
0>!
0?!
0@!
0A!
0B!
0C!
0D!
0E!
0F!
0G!
0H!
0I!
0J!
0K!
1L!
0M!
0N!
0O!
0P!
0Q!
0R!
0S!
0T!
1U!
0V!
0W!
0X!
1Y!
0Z!
0[!
0\!
0]!
1^!
0_!
0`!
0a!
0b!
0c!
1d!
1e!
1f!
0g!
0h!
1i!
0j!
0k!
0l!
1m!
0n!
0o!
0p!
1q!
0r!
0s!
1t!
0u!
1v!
1w!
0x!
1y!
0z!
1{!
0|!
0}!
0~!
0!"
0""
0#"
0$"
0%"
0&"
0'"
0("
0)"
0*"
0+"
0,"
0-"
0."
0/"
10"
01"
02"
03"
04"
05"
06"
07"
18"
09"
0<"
0;"
0:"
0B"
0A"
0@"
0?"
0>"
0="
0\"
0["
0Z"
0Y"
0X"
0W"
0V"
0U"
0T"
0S"
0R"
0Q"
0P"
0O"
0N"
0M"
0L"
0K"
0J"
0I"
0H"
0G"
0F"
0E"
0D"
0C"
0a"
0`"
0_"
0^"
0]"
$end
#10000
1!
1N
1O
06
1B"
1\"
1j!
0i!
1T
0P
1U
0Q
1V
#20000
0$
0!
0R
0N
0S
0O
16
0B"
0\"
0j!
1i!
0T
1P
0U
1Q
0V
#30000
1!
1N
1O
06
#40000
1$
0!
1R
0N
1S
0O
16
#50000
1!
1N
1O
06
1B"
1\"
1j!
0i!
1T
0P
1U
0Q
1V
#60000
0!
0N
0O
16
#70000
1!
1N
1O
06
1A"
0B"
1["
0\"
1i!
1W
0X
0U
0T
1P
1Y
0V
1X
1U
1Q
1Z
0Y
1V
0Z
#80000
0!
0N
0O
16
#90000
1!
1N
1O
06
1B"
1\"
1k!
0j!
0i!
0W
1T
0P
1l!
0X
0U
0Q
1Y
0V
1Z
#100000
0!
0N
0O
16
#110000
1!
1N
1O
06
1@"
0A"
0B"
1Z"
0["
0\"
0m!
0l!
0k!
1i!
1[
0Y
1X
1U
0T
1P
1n!
1m!
1l!
1\
0Z
0[
1Y
1V
0U
1Q
0n!
1]
0\
1Z
0V
0]
#120000
0!
0N
0O
16
#130000
1!
1N
1O
06
1B"
1\"
1j!
0i!
1T
0P
1U
0Q
1V
#140000
0!
0N
0O
16
#150000
1!
1N
1O
06
1A"
0B"
1["
0\"
1i!
1W
0X
0U
0T
1P
1[
0Y
0V
1X
1U
1Q
1\
0Z
0[
1Y
1V
1]
0\
1Z
0]
#160000
0!
0N
0O
16
#170000
1!
1N
1O
06
1B"
1\"
1k!
0j!
0i!
0W
1T
0P
0m!
0l!
0X
0U
0Q
1n!
1[
0Y
0V
1\
0Z
1]
#180000
0!
0N
0O
16
#190000
1!
1N
1O
06
1?"
0@"
0A"
0B"
1Y"
0Z"
0["
0\"
1o!
0n!
1m!
1l!
0k!
1i!
0^
0\
0[
1Y
1X
1U
0T
1P
1p!
0o!
1n!
0l!
1_
0]
1^
1\
1Z
0Y
1V
0U
1Q
0p!
1`
0_
1]
0Z
0V
0`
#200000
0!
0N
0O
16
#210000
1!
1N
1O
06
1B"
1\"
1j!
0i!
1T
0P
1U
0Q
1V
#220000
0!
0N
0O
16
#230000
1!
1N
1O
06
1A"
0B"
1["
0\"
1i!
1W
0X
0U
0T
1P
1Y
0V
1X
1U
1Q
1Z
0Y
1V
0Z
#240000
0!
0N
0O
16
#250000
1!
1N
1O
06
1B"
1\"
1k!
0j!
0i!
0W
1T
0P
1l!
0X
0U
0Q
1Y
0V
1Z
#260000
0!
0N
0O
16
#270000
1!
1N
1O
06
1@"
0A"
0B"
1Z"
0["
0\"
0m!
0l!
0k!
1i!
1[
0Y
1X
1U
0T
1P
1o!
0n!
1m!
1l!
0^
0\
0Z
0[
1Y
1V
0U
1Q
1p!
0o!
1n!
1_
0]
1^
1\
1Z
0V
0p!
1`
0_
1]
0`
#280000
0!
0N
0O
16
#290000
1!
1N
1O
06
1B"
1\"
1j!
0i!
1T
0P
1U
0Q
1V
#300000
0!
0N
0O
16
#310000
1!
1N
1O
06
1A"
0B"
1["
0\"
1i!
1W
0X
0U
0T
1P
1[
0Y
0V
1X
1U
1Q
0^
0\
0Z
0[
1Y
1V
1_
0]
1^
1\
1Z
1`
0_
1]
0`
#320000
0!
0N
0O
16
#330000
1!
1N
1O
06
1B"
1\"
1k!
0j!
0i!
0W
1T
0P
0m!
0l!
0X
0U
0Q
1o!
0n!
1[
0Y
0V
1p!
0^
0\
0Z
1_
0]
1`
#340000
0!
0N
0O
16
#350000
1!
1N
1O
06
1>"
0?"
0@"
0A"
0B"
1X"
0Y"
0Z"
0["
0\"
0q!
0p!
0o!
1n!
1m!
1l!
0k!
1i!
1a
0_
1^
1\
0[
1Y
1X
1U
0T
1P
1r!
1q!
1p!
0n!
0l!
1b
0`
0a
1_
1]
0\
1Z
0Y
1V
0U
1Q
0r!
1c
0b
1`
0]
0Z
0V
0c
#360000
0!
0N
0O
16
#370000
1!
1N
1O
06
1B"
1\"
1j!
0i!
1T
0P
1U
0Q
1V
#380000
0!
0N
0O
16
#390000
1!
1N
1O
06
1A"
0B"
1["
0\"
1i!
1W
0X
0U
0T
1P
1Y
0V
1X
1U
1Q
1Z
0Y
1V
0Z
#400000
0!
0N
0O
16
#410000
1!
1N
1O
06
1B"
1\"
1k!
0j!
0i!
0W
1T
0P
1l!
0X
0U
0Q
1Y
0V
1Z
#420000
0!
0N
0O
16
#430000
1!
1N
1O
06
1@"
0A"
0B"
1Z"
0["
0\"
0m!
0l!
0k!
1i!
1[
0Y
1X
1U
0T
1P
1n!
1m!
1l!
1\
0Z
0[
1Y
1V
0U
1Q
0n!
1]
0\
1Z
0V
0]
#440000
0!
0N
0O
16
#450000
1!
1N
1O
06
1B"
1\"
1j!
0i!
1T
0P
1U
0Q
1V
#460000
0!
0N
0O
16
#470000
1!
1N
1O
06
1A"
0B"
1["
0\"
1i!
1W
0X
0U
0T
1P
1[
0Y
0V
1X
1U
1Q
1\
0Z
0[
1Y
1V
1]
0\
1Z
0]
#480000
0!
0N
0O
16
#490000
1!
1N
1O
06
1B"
1\"
1k!
0j!
0i!
0W
1T
0P
0m!
0l!
0X
0U
0Q
1n!
1[
0Y
0V
1\
0Z
1]
#500000
0!
0N
0O
16
#510000
1!
1N
1O
06
1?"
0@"
0A"
0B"
1Y"
0Z"
0["
0\"
1o!
0n!
1m!
1l!
0k!
1i!
0^
0\
0[
1Y
1X
1U
0T
1P
0q!
0p!
0o!
1n!
0l!
1a
0_
0]
1^
1\
1Z
0Y
1V
0U
1Q
1r!
1q!
1p!
1b
0`
0a
1_
1]
0Z
0V
0r!
1c
0b
1`
0c
#520000
0!
0N
0O
16
#530000
1!
1N
1O
06
1B"
1\"
1j!
0i!
1T
0P
1U
0Q
1V
#540000
0!
0N
0O
16
#550000
1!
1N
1O
06
1A"
0B"
1["
0\"
1i!
1W
0X
0U
0T
1P
1Y
0V
1X
1U
1Q
1Z
0Y
1V
0Z
#560000
0!
0N
0O
16
#570000
1!
1N
1O
06
1B"
1\"
1k!
0j!
0i!
0W
1T
0P
1l!
0X
0U
0Q
1Y
0V
1Z
#580000
0!
0N
0O
16
#590000
1!
1N
1O
06
1@"
0A"
0B"
1Z"
0["
0\"
0m!
0l!
0k!
1i!
1[
0Y
1X
1U
0T
1P
1o!
0n!
1m!
1l!
0^
0\
0Z
0[
1Y
1V
0U
1Q
0q!
0p!
0o!
1n!
1a
0_
0]
1^
1\
1Z
0V
1r!
1q!
1p!
1b
0`
0a
1_
1]
0r!
1c
0b
1`
0c
#600000
0!
0N
0O
16
#610000
1!
1N
1O
06
1B"
1\"
1j!
0i!
1T
0P
1U
0Q
1V
#620000
0!
0N
0O
16
#630000
1!
1N
1O
06
1A"
0B"
1["
0\"
1i!
1W
0X
0U
0T
1P
1[
0Y
0V
1X
1U
1Q
0^
0\
0Z
0[
1Y
1V
1a
0_
0]
1^
1\
1Z
1b
0`
0a
1_
1]
1c
0b
1`
0c
#640000
0!
0N
0O
16
#650000
1!
1N
1O
06
1B"
1\"
1k!
0j!
0i!
0W
1T
0P
0m!
0l!
0X
0U
0Q
1o!
0n!
1[
0Y
0V
0q!
0p!
0^
0\
0Z
1r!
1a
0_
0]
1b
0`
1c
#660000
0!
0N
0O
16
#670000
1!
1N
1O
06
1="
0>"
0?"
0@"
0A"
0B"
1W"
0X"
0Y"
0Z"
0["
0\"
1s!
0r!
1q!
1p!
0o!
1n!
1m!
1l!
0k!
1i!
0d
0b
0a
1_
1^
1\
0[
1Y
1X
1U
0T
1P
1r!
0p!
0n!
0l!
1e
0c
1d
1b
1`
0_
1]
0\
1Z
0Y
1V
0U
1Q
1f
0e
1c
0`
0]
0Z
0V
0f
1|!
1z!
19"
11"
16"
1#"
1}!
08"
0{!
1M
1I
1(
1,
#680000
0!
0N
0O
16
#690000
1!
1N
1O
06
1B"
1\"
1j!
0i!
1T
0P
1U
0Q
1V
#700000
0!
0N
0O
16
#710000
1!
1N
1O
06
1A"
0B"
1["
0\"
1i!
1W
0X
0U
0T
1P
1Y
0V
1X
1U
1Q
1Z
0Y
1V
0Z
#720000
0!
0N
0O
16
#730000
1!
1N
1O
06
1B"
1\"
1k!
0j!
0i!
0W
1T
0P
1l!
0X
0U
0Q
1Y
0V
1Z
#740000
0!
0N
0O
16
#750000
1!
1N
1O
06
1@"
0A"
0B"
1Z"
0["
0\"
0m!
0l!
0k!
1i!
1[
0Y
1X
1U
0T
1P
1n!
1m!
1l!
1\
0Z
0[
1Y
1V
0U
1Q
0n!
1]
0\
1Z
0V
0]
#760000
0!
0N
0O
16
#770000
1!
1N
1O
06
1B"
1\"
1j!
0i!
1T
0P
1U
0Q
1V
#780000
0!
0N
0O
16
#790000
1!
1N
1O
06
1A"
0B"
1["
0\"
1i!
1W
0X
0U
0T
1P
1[
0Y
0V
1X
1U
1Q
1\
0Z
0[
1Y
1V
1]
0\
1Z
0]
#800000
1#
0!
1F!
0N
0O
16
1K!
#810000
1!
1N
1O
06
1B"
1\"
1k!
0j!
0i!
0W
1T
0P
0m!
0l!
0X
0U
0Q
1n!
1[
0Y
0V
1\
0Z
1]
#820000
0!
0N
0O
16
#830000
1!
1N
1O
06
1?"
0@"
0A"
0B"
1Y"
0Z"
0["
0\"
1o!
0n!
1m!
1l!
0k!
1i!
0^
0\
0[
1Y
1X
1U
0T
1P
1p!
0o!
1n!
0l!
1_
0]
1^
1\
1Z
0Y
1V
0U
1Q
0p!
1`
0_
1]
0Z
0V
0`
#840000
0!
0N
0O
16
#850000
1!
1N
1O
06
1B"
1\"
1j!
0i!
1T
0P
1U
0Q
1V
#860000
0!
0N
0O
16
#870000
1!
1N
1O
06
1A"
0B"
1["
0\"
1i!
1W
0X
0U
0T
1P
1Y
0V
1X
1U
1Q
1Z
0Y
1V
0Z
#880000
0!
0N
0O
16
#890000
1!
1N
1O
06
1B"
1\"
1k!
0j!
0i!
0W
1T
0P
1l!
0X
0U
0Q
1Y
0V
1Z
#900000
0!
0N
0O
16
#910000
1!
1N
1O
06
1@"
0A"
0B"
1Z"
0["
0\"
0m!
0l!
0k!
1i!
1[
0Y
1X
1U
0T
1P
1o!
0n!
1m!
1l!
0^
0\
0Z
0[
1Y
1V
0U
1Q
1p!
0o!
1n!
1_
0]
1^
1\
1Z
0V
0p!
1`
0_
1]
0`
#920000
0!
0N
0O
16
#930000
1!
1N
1O
06
1B"
1\"
1j!
0i!
1T
0P
1U
0Q
1V
#940000
0!
0N
0O
16
#950000
1!
1N
1O
06
1A"
0B"
1["
0\"
1i!
1W
0X
0U
0T
1P
1[
0Y
0V
1X
1U
1Q
0^
0\
0Z
0[
1Y
1V
1_
0]
1^
1\
1Z
1`
0_
1]
0`
#960000
0!
0N
0O
16
#970000
1!
1N
1O
06
1B"
1\"
1k!
0j!
0i!
0W
1T
0P
0m!
0l!
0X
0U
0Q
1o!
0n!
1[
0Y
0V
1p!
0^
0\
0Z
1_
0]
1`
#980000
0!
0N
0O
16
#990000
1!
1N
1O
06
1>"
0?"
0@"
0A"
0B"
1X"
0Y"
0Z"
0["
0\"
0q!
0p!
0o!
1n!
1m!
1l!
0k!
1i!
1a
0_
1^
1\
0[
1Y
1X
1U
0T
1P
0r!
1q!
1p!
0n!
0l!
0d
0b
0`
0a
1_
1]
0\
1Z
0Y
1V
0U
1Q
1r!
1e
0c
1d
1b
1`
0]
0Z
0V
1f
0e
1c
0f
#1000000
0!
0N
0O
16
#1010000
1!
1N
1O
06
1B"
1\"
1j!
0i!
1T
0P
1U
0Q
1V
#1020000
0!
0N
0O
16
#1030000
1!
1N
1O
06
1A"
0B"
1["
0\"
1i!
1W
0X
0U
0T
1P
1Y
0V
1X
1U
1Q
1Z
0Y
1V
0Z
#1040000
0!
0N
0O
16
#1050000
1!
1N
1O
06
1B"
1\"
1k!
0j!
0i!
0W
1T
0P
1l!
0X
0U
0Q
1Y
0V
1Z
#1060000
0!
0N
0O
16
#1070000
1!
1N
1O
06
1@"
0A"
0B"
1Z"
0["
0\"
0m!
0l!
0k!
1i!
1[
0Y
1X
1U
0T
1P
1n!
1m!
1l!
1\
0Z
0[
1Y
1V
0U
1Q
0n!
1]
0\
1Z
0V
0]
#1080000
0!
0N
0O
16
#1090000
1!
1N
1O
06
1B"
1\"
1j!
0i!
1T
0P
1U
0Q
1V
#1100000
0!
0N
0O
16
#1110000
1!
1N
1O
06
1A"
0B"
1["
0\"
1i!
1W
0X
0U
0T
1P
1[
0Y
0V
1X
1U
1Q
1\
0Z
0[
1Y
1V
1]
0\
1Z
0]
#1120000
0#
0!
0F!
0N
0O
16
0K!
#1130000
1!
1N
1O
06
1B"
1\"
1k!
0j!
0i!
0W
1T
0P
0m!
0l!
0X
0U
0Q
1n!
1[
0Y
0V
1\
0Z
1]
#1140000
0!
0N
0O
16
#1150000
1!
1N
1O
06
1?"
0@"
0A"
0B"
1Y"
0Z"
0["
0\"
1o!
0n!
1m!
1l!
0k!
1i!
0^
0\
0[
1Y
1X
1U
0T
1P
0q!
0p!
0o!
1n!
0l!
1a
0_
0]
1^
1\
1Z
0Y
1V
0U
1Q
0r!
1q!
1p!
0d
0b
0`
0a
1_
1]
0Z
0V
1r!
1e
0c
1d
1b
1`
1f
0e
1c
0f
#1160000
0!
0N
0O
16
#1170000
1!
1N
1O
06
1B"
1\"
1j!
0i!
1T
0P
1U
0Q
1V
#1180000
0!
0N
0O
16
#1190000
1!
1N
1O
06
1A"
0B"
1["
0\"
1i!
1W
0X
0U
0T
1P
1Y
0V
1X
1U
1Q
1Z
0Y
1V
0Z
#1200000
0!
0N
0O
16
#1210000
1!
1N
1O
06
1B"
1\"
1k!
0j!
0i!
0W
1T
0P
1l!
0X
0U
0Q
1Y
0V
1Z
#1220000
0!
0N
0O
16
#1230000
1!
1N
1O
06
1@"
0A"
0B"
1Z"
0["
0\"
0m!
0l!
0k!
1i!
1n
1[
0Y
1X
1U
0T
1P
1o!
0n!
1m!
1l!
0^
0\
0Z
0[
1Y
1V
0U
1Q
0q!
0p!
0o!
1n!
1a
0_
0]
1^
1\
1Z
0V
0r!
1q!
1p!
0d
0b
0`
0a
1_
1]
1r!
1e
0c
1d
1b
1`
1f
0e
1c
0f
#1240000
0!
0N
0O
16
#1250000
1!
1N
1O
06
1B"
1\"
1j!
0i!
1T
0P
1U
0Q
1V
#1260000
0!
0N
0O
16
#1270000
1!
1N
1O
06
1A"
0B"
1["
0\"
1i!
1W
0X
0U
0T
1P
1[
0Y
0V
1X
1U
1Q
0^
0\
0Z
0[
1Y
1V
1a
0_
0]
1^
1\
1Z
0d
0b
0`
0a
1_
1]
1e
0c
1d
1b
1`
1f
0e
1c
0f
#1280000
0!
0N
0O
16
#1290000
1!
1N
1O
06
1B"
1\"
1k!
0j!
0i!
0W
1T
0P
0m!
0l!
0X
0U
0Q
1o!
0n!
1[
0Y
0V
0q!
0p!
0^
0\
0Z
0r!
1a
0_
0]
0d
0b
0`
1e
0c
1f
#1300000
0!
0N
0O
16
#1310000
1!
1N
1O
06
0="
0>"
0?"
0@"
0A"
0B"
1V"
0W"
0X"
0Y"
0Z"
0["
0\"
0s!
1r!
1q!
1p!
0o!
1n!
1m!
1l!
0k!
1i!
1m
1g
0e
0n
1d
1b
0a
1_
1^
1\
0[
1Y
1X
1U
0T
1P
0r!
0p!
0n!
0l!
1h
0f
0g
1e
1c
0b
1`
0_
1]
0\
1Z
0Y
1V
0U
1Q
0h
1f
0c
0`
0]
0Z
0V
#1320000
0!
0N
0O
16
#1330000
1!
1N
1O
06
1B"
1\"
1j!
0i!
1T
0P
1U
0Q
1V
#1340000
0!
0N
0O
16
#1350000
1!
1N
1O
06
1A"
0B"
1["
0\"
1i!
1W
0X
0U
0T
1P
1Y
0V
1X
1U
1Q
1Z
0Y
1V
0Z
#1360000
0!
0N
0O
16
#1370000
1!
1N
1O
06
1B"
1\"
1k!
0j!
0i!
0W
1T
0P
1l!
0X
0U
0Q
1Y
0V
1Z
#1380000
0!
0N
0O
16
#1390000
1!
1N
1O
06
1@"
0A"
0B"
1Z"
0["
0\"
0m!
0l!
0k!
1i!
1[
0Y
1X
1U
0T
1P
1n!
1m!
1l!
1\
0Z
0[
1Y
1V
0U
1Q
0n!
1]
0\
1Z
0V
0]
#1400000
0!
0N
0O
16
#1410000
1!
1N
1O
06
1B"
1\"
1j!
0i!
1T
0P
1U
0Q
1V
#1420000
1"
0!
1G!
0N
0O
16
